<?xml version="1.0" encoding="UTF-8" standalone="no"?>
<!-- Created with Inkscape (http://www.inkscape.org/) -->

<svg
   xmlns:dc="http://purl.org/dc/elements/1.1/"
   xmlns:cc="http://creativecommons.org/ns#"
   xmlns:rdf="http://www.w3.org/1999/02/22-rdf-syntax-ns#"
   xmlns:svg="http://www.w3.org/2000/svg"
   xmlns="http://www.w3.org/2000/svg"
   xmlns:xlink="http://www.w3.org/1999/xlink"
   xmlns:sodipodi="http://sodipodi.sourceforge.net/DTD/sodipodi-0.dtd"
   xmlns:inkscape="http://www.inkscape.org/namespaces/inkscape"
   width="744.09448819"
   height="1052.3622047"
   id="svg2"
   version="1.1"
   inkscape:version="0.47 r22583"
   sodipodi:docname="capsa per pintar-menys ombra.svg">
  <defs
     id="defs4">
    <pattern
       inkscape:stockid="Stripes 1:1"
       id="Strips1_1"
       patternTransform="matrix(7.9257751,0,0,8.0124978,88.545068,134.3205)"
       height="1"
       width="2"
       patternUnits="userSpaceOnUse"
       inkscape:collect="always">
      <rect
         id="rect4488"
         height="2"
         width="1"
         y="-0.5"
         x="0"
         style="fill:black;stroke:none" />
    </pattern>
    <inkscape:perspective
       sodipodi:type="inkscape:persp3d"
       inkscape:vp_x="0 : 526.18109 : 1"
       inkscape:vp_y="0 : 1000 : 0"
       inkscape:vp_z="744.09448 : 526.18109 : 1"
       inkscape:persp3d-origin="372.04724 : 350.78739 : 1"
       id="perspective10" />
    <symbol
       id="A$C553E761B">
      <path
         id="path2850"
         d="M -771.611064,2516.510491 -720.423732,2477.588072"
         style="stroke:#000000;fill:none" />
    </symbol>
    <symbol
       id="A$C54B2791B">
      <path
         id="path2829"
         d="M -704.576261,2411.803576 -700.904160,2416.632798"
         style="stroke:#000000;fill:none" />
      <path
         id="path2831"
         d="M -710.415954,2472.770475 -643.381258,2372.892629"
         style="stroke:#000000;fill:none" />
      <path
         id="path2833"
         d="M -646.941625,2367.972936 -704.576261,2411.803576"
         style="stroke:#000000;fill:none" />
      <path
         id="path2835"
         d="M -643.381145,2372.892778 -700.904160,2416.632798"
         style="stroke:#000000;fill:none" />
      <path
         id="path2837"
         d="M -734.421621,2466.571572 -676.898606,2422.831552"
         style="stroke:#000000;fill:none" />
      <path
         id="path2839"
         d="M -771.611069,2511.681272 -704.576261,2411.803576"
         style="stroke:#000000;fill:none" />
      <path
         id="path2841"
         d="M -767.938969,2516.510495 -700.904273,2416.632649"
         style="stroke:#000000;fill:none" />
      <path
         id="path2843"
         d="M -767.938969,2516.510495 -710.415954,2472.770475"
         style="stroke:#000000;fill:none" />
      <path
         id="path2845"
         d="M -771.611069,2511.681272 -767.938969,2516.510495"
         style="stroke:#000000;fill:none" />
      <path
         id="path2847"
         d="M -734.421621,2466.571572 -738.093665,2461.742424"
         style="stroke:#000000;fill:none" />
    </symbol>
    <symbol
       id="*Paper_Space0" />
    <symbol
       id="*Paper_Space" />
    <symbol
       id="*Model_Space" />
    <marker
       orient="auto"
       id="DistanceX"
       style="overflow:visible"
       refX="0.0"
       refY="0.0">
      <path
         id="path2823"
         d="M 3,-3 L -3,3 M 0,-5 L  0,5"
         style="stroke:#000000; stroke-width:0.5" />
    </marker>
    <inkscape:perspective
       id="perspective2932"
       inkscape:persp3d-origin="0.5 : 0.33333333 : 1"
       inkscape:vp_z="1 : 0.5 : 1"
       inkscape:vp_y="0 : 1000 : 0"
       inkscape:vp_x="0 : 0.5 : 1"
       sodipodi:type="inkscape:persp3d" />
    <inkscape:perspective
       id="perspective5407"
       inkscape:persp3d-origin="0.5 : 0.33333333 : 1"
       inkscape:vp_z="1 : 0.5 : 1"
       inkscape:vp_y="0 : 1000 : 0"
       inkscape:vp_x="0 : 0.5 : 1"
       sodipodi:type="inkscape:persp3d" />
    <inkscape:perspective
       id="perspective5429"
       inkscape:persp3d-origin="0.5 : 0.33333333 : 1"
       inkscape:vp_z="1 : 0.5 : 1"
       inkscape:vp_y="0 : 1000 : 0"
       inkscape:vp_x="0 : 0.5 : 1"
       sodipodi:type="inkscape:persp3d" />
    <inkscape:perspective
       id="perspective5457"
       inkscape:persp3d-origin="0.5 : 0.33333333 : 1"
       inkscape:vp_z="1 : 0.5 : 1"
       inkscape:vp_y="0 : 1000 : 0"
       inkscape:vp_x="0 : 0.5 : 1"
       sodipodi:type="inkscape:persp3d" />
    <inkscape:perspective
       id="perspective5524"
       inkscape:persp3d-origin="0.5 : 0.33333333 : 1"
       inkscape:vp_z="1 : 0.5 : 1"
       inkscape:vp_y="0 : 1000 : 0"
       inkscape:vp_x="0 : 0.5 : 1"
       sodipodi:type="inkscape:persp3d" />
  </defs>
  <sodipodi:namedview
     id="base"
     pagecolor="#ffffff"
     bordercolor="#666666"
     borderopacity="1.0"
     inkscape:pageopacity="0.0"
     inkscape:pageshadow="2"
     inkscape:zoom="1.0051836"
     inkscape:cx="360.95711"
     inkscape:cy="473.02792"
     inkscape:document-units="px"
     inkscape:current-layer="layer4"
     showgrid="false"
     inkscape:window-width="1280"
     inkscape:window-height="780"
     inkscape:window-x="-4"
     inkscape:window-y="-3"
     inkscape:window-maximized="1" />
  <metadata
     id="metadata7">
    <rdf:RDF>
      <cc:Work
         rdf:about="">
        <dc:format>image/svg+xml</dc:format>
        <dc:type
           rdf:resource="http://purl.org/dc/dcmitype/StillImage" />
        <dc:title />
      </cc:Work>
    </rdf:RDF>
  </metadata>
  <g
     inkscape:groupmode="layer"
     id="layer2"
     inkscape:label="Recuadre"
     style="display:none">
    <image
       xlink:href="file:///home/jrps/Imatges/Paris/DSC01043.JPG"
       width="707.00189"
       height="530.2514"
       id="image5514"
       x="7.4561644"
       y="314.20856" />
  </g>
  <g
     inkscape:groupmode="layer"
     id="layer1"
     inkscape:label="Ombres"
     style="display:none">
    <path
       id="path2904"
       d="m 431.769,588.79794 93.99893,-13.99539"
       style="opacity:0.5;fill:url(#Strips1_1);fill-opacity:1;stroke:#000000;stroke-width:0.28236681;stroke-linecap:round;stroke-linejoin:miter;stroke-miterlimit:0.2;stroke-opacity:1;stroke-dasharray:none;display:inline" />
    <path
       id="path2892"
       d="m 366.07274,558.02839 44.92658,-38.68347"
       style="opacity:0.5;fill:none;stroke:#000000;stroke-width:0.35302228;stroke-linecap:round;stroke-linejoin:miter;stroke-miterlimit:0.2;stroke-opacity:1;stroke-dasharray:none;display:inline"
       sodipodi:nodetypes="cc" />
    <path
       id="path2906"
       d="m 525.75873,574.81175 -15.05884,28.45383"
       style="opacity:0.5;fill:none;stroke:#000000;stroke-width:0.30077025;stroke-linecap:round;stroke-linejoin:miter;stroke-miterlimit:0.2;stroke-opacity:1;stroke-dasharray:none;display:inline" />
    <path
       id="path2908"
       d="m 510.69989,603.26558 -14.85259,2.06189"
       style="opacity:0.5;fill:none;stroke:#000000;stroke-width:0.30077025;stroke-linecap:round;stroke-linejoin:miter;stroke-miterlimit:0.2;stroke-opacity:1;stroke-dasharray:none;display:inline" />
    <path
       id="path2910"
       d="m 495.8473,605.32747 11.13941,1.6495"
       style="opacity:0.5;fill:none;stroke:#000000;stroke-width:0.30077025;stroke-linecap:round;stroke-linejoin:miter;stroke-miterlimit:0.2;stroke-opacity:1;stroke-dasharray:none;display:inline" />
    <path
       id="path2912"
       d="m 506.98671,606.97697 -19.80343,35.87656"
       style="opacity:0.5;fill:none;stroke:#000000;stroke-width:0.30077025;stroke-linecap:round;stroke-linejoin:miter;stroke-miterlimit:0.2;stroke-opacity:1;stroke-dasharray:none;display:inline" />
    <path
       id="path2914"
       d="M 487.18328,642.85353 380.53389,715.43147"
       style="opacity:0.5;fill:none;stroke:#000000;stroke-width:0.30077025;stroke-linecap:round;stroke-linejoin:miter;stroke-miterlimit:0.2;stroke-opacity:1;stroke-dasharray:none;display:inline" />
    <path
       id="path2918"
       d="m 411.2314,519.34155 9.71476,-1.19137"
       style="opacity:0.5;fill:none;stroke:#000000;stroke-width:0.36238101;stroke-linecap:round;stroke-linejoin:miter;stroke-miterlimit:0.2;stroke-opacity:1;stroke-dasharray:none;display:inline" />
  </g>
  <g
     inkscape:groupmode="layer"
     id="layer4"
     inkscape:label="color ombra"
     style="display:inline">
    <path
       style="fill:#babdb6;fill-opacity:1;fill-rule:evenodd;stroke:#000000;stroke-width:0.08347213;stroke-linecap:butt;stroke-linejoin:miter;stroke-miterlimit:1;stroke-opacity:1;stroke-dasharray:none;display:inline"
       d="m 238.64361,540.61462 c 0.19435,-0.11315 16.10925,-8.84952 34.14275,-18.69434 l 32.78818,-17.7819 56.14209,6.74078 c 30.81336,3.80461 57.36119,7.18405 57.55554,7.22195 0.19435,0.0379 -2.17908,0.37352 -4.12259,0.60188 l -3.71034,0.47409 -51.16404,-6.42721 c -28.10783,-3.50258 -51.63664,-6.36832 -51.9983,-6.36832 -0.43482,0 -10.27347,5.7039 -29.61908,16.60831 l -29.25598,16.31383 -4.69325,0.58881 c -5.15461,0.65489 -6.59804,1.03245 -6.06498,0.72212 z"
       id="path5217"
       sodipodi:nodetypes="ccccscccscccc" />
    <path
       style="opacity:0.65;fill:#888a85;fill-opacity:1;fill-rule:evenodd;stroke:#000000;stroke-width:0.07080620999999999;stroke-linecap:butt;stroke-linejoin:miter;stroke-miterlimit:1;stroke-opacity:0.73180080999999986;stroke-dasharray:none;display:inline"
       d="m 381.98933,713.65427 c 0,-0.0563 8.73816,-11.95702 19.36015,-26.50003 l 26.36357,-36.08448 1.6377,-26.75317 c 1.24423,-19.44063 2.2592,-35.38101 2.31655,-35.43836 0.0906,-0.0906 93.70583,-13.7859 93.77378,-13.71879 0.0142,0.0139 -3.38148,6.4749 -7.52359,13.9136 l -7.1496,13.98815 -7.20883,1.1257 c -3.96485,0.56417 -8.06789,0.88745 -7.76347,0.96263 0.69286,0.17111 0.14167,0.43515 5.49494,1.21509 2.88764,0.4207 5.62532,0.73368 5.59526,0.81763 -0.03,0.084 -4.71571,8.25867 -10.04619,17.92181 l -9.79172,17.66925 -52.22269,35.54706 c -28.72248,19.55087 -53.41777,36.46344 -53.51839,36.50008 -0.10062,0.0366 -0.18294,0.0205 -0.18294,-0.0357 l 0.86547,-1.13046 0,-10e-6 z"
       id="path5215"
       sodipodi:nodetypes="ccccsscccssscccsccc" />
    <path
       style="fill:#888a85;fill-opacity:0.99646463;fill-rule:evenodd;stroke:#000000;stroke-width:0.04429134;stroke-linecap:butt;stroke-linejoin:miter;stroke-miterlimit:1;stroke-opacity:1;stroke-dasharray:none;display:inline"
       d="m 336.67474,553.53627 c -15.60625,-2.39479 -28.43326,-4.35796 -28.45045,-4.3626 -0.0172,-0.005 0.14558,-9.66937 0.14558,-21.28812 0,-18.50461 -0.19595,-21.21875 -0.035,-21.21875 0.21247,0 102.23041,12.6694 102.36976,12.71313 0.0509,0.016 -22.08824,19.13086 -22.39366,19.30249 -0.23906,0.13435 -22.24212,19.32752 -22.48323,19.33136 -0.37834,0.006 -26.49563,-4.00516 -28.31329,-4.36702 l -0.83974,-0.11049 z"
       id="path5239"
       sodipodi:nodetypes="csssssscc" />
    <path
       style="fill:#888a85;fill-opacity:0.99646463;fill-rule:evenodd;stroke:#000000;stroke-width:0.12527482;stroke-linecap:butt;stroke-linejoin:miter;stroke-miterlimit:1;stroke-opacity:1;stroke-dasharray:none;display:inline"
       d="m 279.06764,544.83144 c -15.55635,-2.39812 -30.09281,-4.61634 -30.42198,-4.67512 -0.43899,-0.0784 58.36683,-32.80912 59.34635,-33.37777 0.15288,-0.0888 0.1112,9.70762 0.1112,21.19663 0,11.48901 0.0133,21.1912 -0.13257,21.16881 -0.14584,-0.0224 -13.34664,-1.91443 -28.90299,-4.31255 l -1e-5,0 z"
       id="path5241"
       sodipodi:nodetypes="csssscc" />
    <path
       style="fill:#555753;fill-opacity:1;fill-rule:evenodd;stroke:#000000;stroke-width:0.08347213;stroke-linecap:butt;stroke-linejoin:miter;stroke-miterlimit:1;stroke-opacity:1;stroke-dasharray:none;display:inline"
       d="m 243.35625,535.48273 c 1.94351,-1.91498 25.03043,-24.5128 51.44824,-50.43333 l 48.1796,-47.21659 27.42964,-11.564 c 15.08631,-6.32781 27.4163,-11.41451 28.68021,-11.97811 0.0615,-0.0274 -21.84086,20.93344 -47.3262,45.26132 l -46.27808,44.14416 -32.21514,17.62733 c -17.8155,9.72742 -34.34711,18.70742 -34.54146,18.76787 -0.19435,0.0605 2.65025,-2.92924 4.62319,-4.60865 z"
       id="path5221-4"
       sodipodi:nodetypes="ccccscccsc" />
    <path
       style="fill:#babdb6;fill-opacity:1;fill-rule:evenodd;stroke:#000000;stroke-width:0.12527482;stroke-linecap:butt;stroke-linejoin:miter;stroke-miterlimit:1;stroke-opacity:1;stroke-dasharray:none"
       d="m 380.63272,709.87117 c 0.0936,-2.18761 1.52722,-35.89696 3.10943,-74.90966 l 2.85685,-70.99016 24.49284,-21.65708 c 13.32012,-11.86108 24.70914,-22.30167 24.7499,-22.08324 0.0408,0.21843 -2.06331,30.56803 -4.34029,65.99008 l -3.77406,64.40372 -22.93775,31.76589 c -12.71639,17.42093 -23.95024,32.43554 -23.971,32.47356 -0.55765,1.02124 -0.0293,-2.99299 0.12656,-5.05561 l -0.31248,0.0625 z"
       id="path5472"
       sodipodi:nodetypes="ccccscccscc" />
    <path
       style="fill:#babdb6;fill-opacity:1;fill-rule:evenodd;stroke:#000000;stroke-width:0.12527482;stroke-linecap:butt;stroke-linejoin:miter;stroke-miterlimit:1;stroke-opacity:1;stroke-dasharray:none"
       d="m 374.01447,559.32268 c -4.14487,-0.62653 -7.92049,-1.28869 -7.84146,-1.48555 0.076,-0.18933 2.03489,-1.79577 3.51451,-3.06675 1.47962,-1.27097 11.56979,-10.04401 21.99569,-19.10432 l 19.1225,-16.33608 7.76815,0.92971 8.1798,1.11266 -21.56005,18.56774 c -11.63162,10.11162 -21.52413,18.93125 -22.15106,19.43146 l -1.41432,0.95522 -7.61376,-1.00409 z"
       id="path5474"
       sodipodi:nodetypes="csscccccccc" />
    <path
       style="fill:#babeb6;fill-opacity:0.74901961;fill-rule:evenodd;stroke:#000000;stroke-width:0.12527482;stroke-linecap:butt;stroke-linejoin:miter;stroke-miterlimit:1;stroke-opacity:1;stroke-dasharray:none"
       d="m 341.01656,436.00338 c -0.73767,-0.75545 -1.59739,-1.76449 -1.40661,-1.8824 0.68958,-0.42618 56.84808,-23.6126 57.53715,-23.75379 0.49088,-0.10058 0.82359,0.82048 1.52251,1.70847 0.55375,0.70353 1.21474,1.5571 1.14496,1.62688 -0.19201,0.19201 -56.65094,23.8397 -56.91608,23.86579 -0.59848,0.0589 -1.14425,-0.8095 -1.88193,-1.56495 z"
       id="path5476"
       sodipodi:nodetypes="csssssc" />
  </g>
  <g
     inkscape:groupmode="layer"
     id="layer3"
     inkscape:label="Colors"
     style="display:inline">
    <path
       style="opacity:0.7;fill:#bf0000;fill-opacity:1;fill-rule:evenodd;stroke:#000000;stroke-width:0.08347213;stroke-linecap:butt;stroke-linejoin:miter;stroke-miterlimit:1;stroke-opacity:1;stroke-dasharray:none;display:inline"
       d="m 243.40636,535.50839 c 1.94351,-1.91498 25.03043,-24.5128 51.44824,-50.43333 l 48.17961,-47.21659 27.42964,-11.564 c 15.08631,-6.32781 27.4163,-11.41451 28.68021,-11.97811 0.0615,-0.0274 -21.84086,20.93344 -47.3262,45.26132 l -46.27809,44.14416 -32.21514,17.62733 c -17.8155,9.72742 -34.34711,18.70742 -34.54146,18.76787 -0.19435,0.0605 2.65025,-2.92924 4.62319,-4.60865 z"
       id="path5221"
       sodipodi:nodetypes="ccccscccsc" />
    <path
       style="opacity:0.9;fill:#bf0000;fill-opacity:1;fill-rule:evenodd;stroke:#000000;stroke-width:0.08858268;stroke-linecap:butt;stroke-linejoin:miter;stroke-miterlimit:1;stroke-opacity:1;stroke-dasharray:none;display:inline"
       d="m 280.53037,690.94572 -37.83019,-9.20423 -0.002,-0.009 c -0.37246,-8.76446 -4.96576,-140.00765 -4.91161,-140.48371 l 0.0409,0.0222 c 24.84302,3.53299 49.67324,7.31951 74.46339,11.16972 l 74.22411,11.50182 0.0538,-0.0142 c -0.0391,1.29842 -1.31102,34.08724 -2.75,69.65571 -1.43899,35.56847 -2.66747,65.04949 -2.66747,65.5404 l -0.55242,16.11745 -28.83763,-7.08797 -33.49632,-7.96113 -37.72656,-9.24668 0,-2e-5 -0.008,5e-5 0,-4.1e-4 z"
       id="path5227"
       sodipodi:nodetypes="ccccccccscccccccc" />
    <path
       style="opacity:0.8;fill:#bf0000;fill-opacity:1;fill-rule:evenodd;stroke:#000000;stroke-width:0.17716536;stroke-linecap:butt;stroke-linejoin:miter;stroke-miterlimit:1;stroke-opacity:1;stroke-dasharray:none;display:inline"
       d="m 380.75786,714.96852 c 5.7e-4,-0.80208 1.30034,-34.93887 2.94239,-75.21135 2.73778,-67.1461 3.06361,-72.27573 3.17573,-75.75058 0.003,-0.10815 49.1338,-43.69676 49.02502,-43.68677 -0.15677,0.0144 -2.20079,32.57803 -4.47111,68.10124 l -3.7522,62.26746 -2.7089,3.82656 c -2.47148,3.43312 -43.99222,60.08217 -44.20899,60.33342 -0.0989,0.11458 0.39524,0.74532 0.39581,-0.0568 l -0.39775,0.17678 0,4e-5 z"
       id="path5229"
       sodipodi:nodetypes="cssscccsccc" />
    <path
       style="opacity:0.7;fill:#e3ad00;fill-opacity:0.99646463;fill-rule:evenodd;stroke:#000000;stroke-width:0.12527482;stroke-linecap:butt;stroke-linejoin:miter;stroke-miterlimit:1;stroke-opacity:1;stroke-dasharray:none;display:inline"
       d="m 279.07513,544.78363 c -15.55635,-2.39812 -30.09281,-4.61634 -30.42198,-4.67512 -0.43899,-0.0784 58.36683,-32.80912 59.34635,-33.37777 0.15288,-0.0888 0.1112,9.70762 0.1112,21.19663 0,11.48901 0.0133,21.1912 -0.13257,21.16881 -0.14584,-0.0224 -13.34664,-1.91443 -28.90299,-4.31255 l -10e-6,0 z"
       id="path5241-1"
       sodipodi:nodetypes="csssscc" />
    <path
       style="opacity:0.7;fill:#e3ad00;fill-opacity:1;fill-rule:evenodd;stroke:#000000;stroke-width:0.12527482;stroke-linecap:butt;stroke-linejoin:miter;stroke-miterlimit:1;stroke-opacity:1;stroke-dasharray:none"
       d="m 344.91362,554.95935 c -19.93157,-3.05403 -36.53533,-5.65143 -36.68117,-5.66394 -0.14584,-0.0125 -0.0884,-10.29864 -0.0884,-21.88576 l 0.26516,-20.80235 1.76776,0.21075 c 0.72921,0.11592 26.58722,3.30163 57.89438,7.18739 31.30715,3.88577 59.33877,7.283 58.44268,7.24495 -0.25769,-0.0109 -5.21827,4.92368 -11.40209,10.28949 -6.18383,5.3658 -16.52894,14.21666 -22.55702,19.45252 l -10.87177,9.43136 -36.76955,-5.46441 z"
       id="path5447"
       sodipodi:nodetypes="cscccsssccc" />
    <path
       style="fill:#eeeeec;fill-opacity:1;fill-rule:evenodd;stroke:none;stroke-width:0.17716534000000000;stroke-miterlimit:4;stroke-opacity:1;stroke-dasharray:none;display:inline"
       d="m 236.46039,539.29488 -1.11429,-1.30429 51.25331,-50.98934 51.2533,-50.98934 1.16797,-1.1524 c 1.33278,-0.067 1.63529,1.0482 2.51615,1.95026 l 0.91507,0.93711 -50.50777,49.53561 c -27.77927,27.24459 -51.37665,50.38636 -52.43861,51.42616 l -1.93084,1.89055 -1.11429,-1.30428 0,0 0,-4e-5 z"
       id="path5502"
       sodipodi:nodetypes="ccccccccccccc" />
    <path
       style="fill:#eeeeec;fill-opacity:1;fill-rule:evenodd;stroke:none;stroke-width:0.17716534000000000;stroke-miterlimit:4;stroke-opacity:1;stroke-dasharray:none;display:inline"
       d="m 311.90104,552.19462 c -40.24368,-6.19555 -73.79434,-11.31906 -73.76936,-11.34485 0.0615,-0.0635 10.76437,-1.45647 11.17219,-1.45647 0.18512,0 -0.88937,0.37121 -0.96593,0.57071 -0.0877,0.22846 0.059,0.39247 0.42574,0.47622 0.8598,0.19631 132.32245,20.20671 132.75238,20.20671 0.20785,0 1.9532,-1.37551 3.87856,-3.05669 1.92535,-1.68117 12.07751,-10.50767 22.56036,-19.61444 10.48284,-9.10677 19.01747,-16.60687 18.84848,-16.76078 -0.20604,-0.18765 -0.0917,-0.25857 -7.56279,-1.1572 l -7.34678,-0.89529 4.12903,-0.4592 3.30519,-0.54369 7.98011,1.01995 c 4.30774,0.52613 8.4026,0.77657 8.4026,0.86636 0,0.0898 -11.4504,10.10348 -24.74825,21.94282 -22.85826,20.35119 -24.22465,21.52456 -25.03455,21.49828 -0.47116,-0.0153 -33.7833,-5.09689 -74.02698,-11.29244 l 0,0 z"
       id="path5500"
       sodipodi:nodetypes="csssssssscccccssscc" />
  </g>
  <g
     inkscape:label="Capsa"
     inkscape:groupmode="layer"
     id="capa1"
     style="display:inline">
    <g
       inkscape:label="0"
       id="g2852"
       transform="matrix(7.0042121,0,0,7.0042121,-3628.8487,-183.66368)" />
    <path
       id="path2858"
       d="M 237.58249,541.01564 342.85146,437.74153"
       style="fill:#00734d;stroke:#000000;stroke-width:0.35433072;stroke-miterlimit:1;stroke-opacity:1;stroke-dasharray:none" />
    <path
       id="path2860"
       d="m 342.85146,437.74153 -3.55037,-3.55607"
       style="fill:#00734d;stroke:#000000;stroke-width:0.35433072;stroke-miterlimit:1;stroke-opacity:1;stroke-dasharray:none" />
    <path
       id="path2862"
       d="M 339.30109,434.18546 234.91571,538.05272"
       style="fill:#00734d;stroke:#000000;stroke-width:0.354;stroke-miterlimit:1;stroke-opacity:1;stroke-dasharray:none" />
    <path
       id="path2864"
       d="M 237.58249,541.01564 305.5957,503.88999"
       style="fill:#00734d;stroke:#000000;stroke-width:0.35433072;stroke-miterlimit:1;stroke-opacity:1;stroke-dasharray:none" />
    <path
       id="path2866"
       d="m 305.5957,503.88999 94.3922,-90.11162"
       style="fill:#00734d;stroke:#000000;stroke-width:0.35433072;stroke-miterlimit:1;stroke-opacity:1;stroke-dasharray:none" />
    <path
       id="path2868"
       d="m 399.9879,413.77837 -57.13644,23.96316"
       style="fill:#00734d;stroke:#000000;stroke-width:0.35433072;stroke-miterlimit:1;stroke-opacity:1;stroke-dasharray:none" />
    <path
       id="path2870"
       d="m 342.85146,437.74153 -3.54434,-3.56204"
       style="fill:#00734d;stroke:#000000;stroke-width:0.35433072;stroke-miterlimit:1;stroke-opacity:1;stroke-dasharray:none" />
    <path
       id="path2872"
       d="m 339.30712,434.17949 57.93008,-23.876"
       style="fill:#00734d;stroke:#000000;stroke-width:0.35433072;stroke-miterlimit:1;stroke-opacity:1;stroke-dasharray:none" />
    <path
       id="path2874"
       d="m 397.2372,410.30349 2.7507,3.47488"
       style="fill:#00734d;stroke:#000000;stroke-width:0.35433072;stroke-miterlimit:1;stroke-opacity:1;stroke-dasharray:none" />
    <path
       id="path2876"
       d="m 305.5957,503.88999 130.46809,16.103"
       style="fill:#00734d;stroke:#000000;stroke-width:0.35433072;stroke-miterlimit:1;stroke-opacity:1;stroke-dasharray:none" />
    <path
       id="path2882"
       d="m 248.41255,540.1385 59.77037,-33.69163"
       style="fill:#00734d;stroke:#000000;stroke-width:0.35433072;stroke-miterlimit:1;stroke-opacity:1;stroke-dasharray:none" />
    <path
       id="path2884"
       d="m 308.18292,506.44687 118.67209,14.76177"
       style="fill:#00734d;stroke:#000000;stroke-width:0.35433072;stroke-miterlimit:1;stroke-opacity:1;stroke-dasharray:none" />
    <path
       id="path2886"
       d="m 426.85501,521.20864 -45.17535,39.24901"
       style="fill:#e85752;stroke:#000000;stroke-width:0.35433072;stroke-miterlimit:1;stroke-opacity:1;stroke-dasharray:none" />
    <path
       id="path2888"
       d="M 381.67966,560.45765 248.41255,540.1385"
       style="fill:#00734d;stroke:#000000;stroke-width:0.35433072;stroke-miterlimit:1;stroke-opacity:1;stroke-dasharray:none" />
    <path
       id="path2890"
       d="m 308.18292,506.44687 0,42.80481"
       style="fill:#00734d;stroke:#000000;stroke-width:0.35433072;stroke-miterlimit:1;stroke-opacity:1;stroke-dasharray:none" />
    <g
       id="g3870"
       style="fill:none;stroke:#000000;stroke-width:0.35433072;stroke-miterlimit:1;stroke-opacity:1;stroke-dasharray:none">
      <path
         style="fill:none;stroke:#000000;stroke-width:0.35433072;stroke-miterlimit:1;stroke-opacity:1;stroke-dasharray:none"
         d="m 386.71849,563.93104 -149.136,-22.9154"
         id="path2880" />
      <path
         style="fill:none;stroke:#000000;stroke-width:0.35433072;stroke-miterlimit:1;stroke-opacity:1;stroke-dasharray:none"
         d="m 380.56067,715.40469 6.15782,-151.47365"
         id="path2898" />
      <path
         style="fill:none;stroke:#000000;stroke-width:0.35433072;stroke-miterlimit:1;stroke-opacity:1;stroke-dasharray:none"
         d="m 237.58249,541.01564 4.94239,140.86822"
         id="path2900" />
      <path
         style="fill:none;stroke:#000000;stroke-width:0.35433072;stroke-miterlimit:1;stroke-opacity:1;stroke-dasharray:none"
         d="m 242.52488,681.88386 138.03579,33.52083"
         id="path2902" />
    </g>
    <g
       id="g3711"
       style="fill:none">
      <path
         style="fill:none;stroke:#000000;stroke-width:0.35433072;stroke-miterlimit:1;stroke-opacity:1;stroke-dasharray:none"
         d="m 436.06379,519.99299 -49.3453,43.93805"
         id="path2878" />
      <path
         style="fill:none;stroke:#000000;stroke-width:0.35433072;stroke-miterlimit:1;stroke-opacity:1;stroke-dasharray:none"
         d="m 436.06379,519.99299 -8.35707,130.8356"
         id="path2894" />
      <path
         style="fill:none;stroke:#000000;stroke-width:0.35433072;stroke-miterlimit:1;stroke-opacity:1;stroke-dasharray:none"
         d="m 427.70672,650.82859 -47.14605,64.5761"
         id="path2896" />
      <path
         id="path3709"
         d="m 310.91371,698.11432 c -37.31537,-9.08185 -67.87949,-16.53233 -67.92024,-16.55663 -0.0866,-0.0516 -4.8896,-136.45741 -4.87969,-138.58462 l 0.007,-1.4347 73.85335,11.33663 73.85335,11.33664 0.16853,1.40576 c 0.0927,0.77316 -1.1766,34.63976 -2.82066,75.2591 -2.60767,64.42715 -3.08019,73.84678 -3.70219,73.80181 -0.39214,-0.0284 -31.24375,-7.48214 -68.55913,-16.56399 z"
         style="fill:none;stroke:none" />
    </g>
    <path
       style="fill:none;stroke:none"
       d="m 385.05985,614.95468 c 0.071,-1.00415 0.55551,-12.74471 1.0766,-26.09014 0.5211,-13.34543 0.98959,-24.39018 1.04109,-24.54388 0.0963,-0.28741 34.92698,-31.3188 43.34831,-38.61994 l 4.71154,-4.08481 0.0685,0.76134 c 0.0692,0.76936 -3.17346,53.14907 -4.90263,79.19411 -0.51561,7.76615 -0.93746,14.36525 -0.93746,14.66466 l 0,0.54438 -22.26753,0 -22.26753,0 0.12915,-1.82572 0,0 z"
       id="path3753" />
    <path
       style="fill:none;stroke:#000000;stroke-width:0.354;stroke-linecap:butt;stroke-linejoin:miter;stroke-miterlimit:4;stroke-opacity:1;stroke-dasharray:none"
       d="m 234.93311,537.94151 2.65522,3.02694 0.1062,0.10621"
       id="path3667" />
  </g>
</svg>
